…
---

    Code
      add_line_num_head(head_df_pr90_gha)
    Output
      # A tibble: 50 x 5
          line raw                                                 hunk  head  context
         <int> <chr>                                               <lgl> <lgl> <lgl>  
       1    22 "@@ -23,21 +23,22 @@"                               TRUE  FALSE FALSE  
       2    23 " #' `use_covr2gh_action()` wraps [usethis::use_gi~ FALSE FALSE TRUE   
       3    24 " #'"                                               FALSE FALSE TRUE   
       4    25 " #' @param badge (logical) should a badge be adde~ FALSE FALSE TRUE   
       5    26 "+#' @inheritParams get_pr_details"                 FALSE TRUE  FALSE  
       6    27 " #'"                                               FALSE FALSE TRUE   
       7    28 " #' @export"                                       FALSE FALSE TRUE   
       8    29 " #' @examples"                                     FALSE FALSE TRUE   
       9    30 " #' \\dontrun{"                                    FALSE FALSE TRUE   
      10    31 "+#' use_covr2gh_action(\"<owner>/<repo>\")"        FALSE TRUE  FALSE  
      # i 40 more rows
…
